<svg xmlns="http://www.w3.org/2000/svg" viewBox="195.5 157.5 476 383" id="el_GFmUj1GZr" height="383" width="476"><style>@-webkit-keyframes kf_el_vat7T8vlxZ_an_YHFfiT-B9{
0%{-webkit-transform: translate(-1px, 0px) translate(1px, 0px) translate(-80px, 0px);transform: translate(-1px, 0px) translate(1px, 0px) translate(-80px, 0px);}
100%{-webkit-transform: translate(-1px, 0px) translate(1px, 0px) translate(-110px, 28px);transform: translate(-1px, 0px) translate(1px, 0px) translate(-110px, 28px);}}
@keyframes kf_el_vat7T8vlxZ_an_YHFfiT-B9{
0%{-webkit-transform: translate(-1px, 0px) translate(1px, 0px) translate(-80px, 0px);transform: translate(-1px, 0px) translate(1px, 0px) translate(-80px, 0px);}
100%{-webkit-transform: translate(-1px, 0px) translate(1px, 0px) translate(-110px, 28px);transform: translate(-1px, 0px) translate(1px, 0px) translate(-110px, 28px);}}
#el_GFmUj1GZr *{-webkit-animation-duration: 100ms;animation-duration: 100ms;-webkit-animation-iteration-count: infinite;animation-iteration-count: infinite;-webkit-animation-timing-function: cubic-bezier(0, 0, 1, 1);animation-timing-function: cubic-bezier(0, 0, 1, 1);}
#el_vat7T8vlxZ{fill: #fff;}
#el_vat7T8vlxZ_an_YHFfiT-B9{-webkit-animation-fill-mode: backwards;animation-fill-mode: backwards;-webkit-transform: translate(-1px, 0px) translate(1px, 0px) translate(-80px, 0px);transform: translate(-1px, 0px) translate(1px, 0px) translate(-80px, 0px);-webkit-animation-name: kf_el_vat7T8vlxZ_an_YHFfiT-B9;animation-name: kf_el_vat7T8vlxZ_an_YHFfiT-B9;-webkit-animation-timing-function: cubic-bezier(0, 0, 1, 1);animation-timing-function: cubic-bezier(0, 0, 1, 1);}</style>
  <defs/>
  <g id="el_vat7T8vlxZ_an_YHFfiT-B9" data-animator-group="true" data-animator-type="0"><path d="M867 13h-50l50 51zM867 124L756 13h-56l167 167zM867 262v-22L640 13h-59l267 267zM503 55l-42-42h60l298 297-31 30L503 55M401 13l357 357-30 30L342 13h59zM267 0l431 431-31 30L236 31zM209 58l431 431-31 30L178 89zM148 118l431 431-31 31-430-431zM89 179l431 431-31 30L58 210zM30 237l431 431-31 30L-1 268z" id="el_vat7T8vlxZ"/></g>
</svg>